# mutalisk_to_dataframe works

    Code
      df_mutalisk_to_dataframe
    Output
      # A tibble: 43 x 3
         SampleID     Signatures Contributions
         <chr>        <fct>              <dbl>
       1 TCGA-66-2789 1                 0.0518
       2 TCGA-66-2789 2                 0.0223
       3 TCGA-66-2789 3                 0.712 
       4 TCGA-66-2789 5                 0.164 
       5 TCGA-66-2789 14                0.0507
       6 TCGA-66-2791 1                 0.0530
       7 TCGA-66-2791 2                 0.0783
       8 TCGA-66-2791 3                 0.683 
       9 TCGA-66-2791 5                 0.0932
      10 TCGA-66-2791 14                0.0923
      # ... with 33 more rows

# mutalisk_best_signature_directory_to_dataframe works

    Code
      df_mutalisk_dir_to_df
    Output
      # A tibble: 43 x 3
         SampleID     Signatures Contributions
         <chr>        <fct>              <dbl>
       1 TCGA-66-2789 1                 0.0518
       2 TCGA-66-2789 2                 0.0223
       3 TCGA-66-2789 3                 0.712 
       4 TCGA-66-2789 5                 0.164 
       5 TCGA-66-2789 14                0.0507
       6 TCGA-66-2791 1                 0.0530
       7 TCGA-66-2791 2                 0.0783
       8 TCGA-66-2791 3                 0.683 
       9 TCGA-66-2791 5                 0.0932
      10 TCGA-66-2791 14                0.0923
      # ... with 33 more rows
